{
    "_id": "1wQY3JYyhMYeeV2G",
    "data": {
        "active": true,
        "alsoApplies": {
            "linked": [],
            "unlinked": []
        },
        "base": "Observed",
        "description": {
            "chat": "",
            "unidentified": "",
            "value": "<p>Anything in plain view is observed by you. If a creature takes measures to avoid detection, such as by using Stealth to <a class=\"entity-link\" draggable=\"true\" data-pack=\"pf2e.actionspf2e\" data-id=\"XMcnh4cSI32tljXa\"> Hide</a>, it can become <a class=\"entity-link\" draggable=\"true\" data-pack=\"pf2e.conditionitems\" data-id=\"iU0fEDdBp3rXpTMC\"> Hidden</a> or <a class=\"entity-link\" draggable=\"true\" data-pack=\"pf2e.conditionitems\" data-id=\"VRSef5y1LmL2Hkjf\"> Undetected</a> instead of observed. If you have another precise sense instead of or in addition to sight, you might be able to observe a creature or object using that sense instead. You can observe a creature only with precise senses. When <a class=\"entity-link\" draggable=\"true\" data-pack=\"pf2e.actionspf2e\" data-id=\"BlAOM2X92SI6HMtJ\"> Seeking</a> a creature using only imprecise senses, it remains hidden, rather than observed.</p>"
        },
        "duration": {
            "perpetual": true,
            "text": "",
            "value": 0
        },
        "group": "detection",
        "hud": {
            "img": {
                "useStatusName": true,
                "value": "system/pf2e/icons/conditions-2/observed.png"
            },
            "selectable": true,
            "statusName": "observed"
        },
        "modifiers": [],
        "overrides": [],
        "rarity": {
            "value": "common"
        },
        "references": {
            "children": [],
            "immunityFrom": [],
            "overriddenBy": [],
            "overrides": []
        },
        "removable": true,
        "rules": [],
        "source": {
            "value": ""
        },
        "sources": {
            "hud": false
        },
        "traits": {
            "value": []
        },
        "usage": {
            "value": "held-in-one-hand"
        },
        "value": {
            "immutable": false,
            "isValued": false,
            "modifiers": [],
            "value": 1
        }
    },
    "effects": [],
    "flags": {
        "pf2e": {
            "condition": true
        }
    },
    "img": "systems/pf2e/icons/conditions/observed.png",
    "name": "Observed",
    "permission": {
        "default": 0
    },
    "type": "condition"
}
