{
    "_id": "e1XGnhKNSQIm5IXg",
    "data": {
        "active": true,
        "alsoApplies": {
            "linked": [],
            "unlinked": []
        },
        "base": "Stupefied",
        "description": {
            "chat": "",
            "unidentified": "",
            "value": "<p>Your thoughts and instincts are clouded. Stupefied always includes a value. You take a status penalty equal to this value on Intelligence-, Wisdom-, and Charisma-based checks and DCs, including Will saving throws, spell attack rolls, spell DCs, and skill checks that use these ability scores. Any time you attempt to <a class=\"entity-link\" draggable=\"true\" data-pack=\"pf2e.actionspf2e\" data-id=\"aBQ8ajvEBByv45yz\"> Cast a Spell</a> while stupefied, the spell is disrupted unless you succeed at a flat check with a DC equal to 5 + your stupefied value.</p>"
        },
        "duration": {
            "perpetual": true,
            "text": "",
            "value": 0
        },
        "group": "abilities",
        "hud": {
            "img": {
                "useStatusName": true,
                "value": "system/pf2e/icons/conditions-2/stupefied.png"
            },
            "selectable": true,
            "statusName": "stupefied"
        },
        "modifiers": [
            {
                "group": "int-based",
                "type": "status"
            },
            {
                "group": "wis-based",
                "type": "status"
            },
            {
                "group": "cha-based",
                "type": "status"
            }
        ],
        "overrides": [],
        "rarity": {
            "value": "common"
        },
        "references": {
            "children": [],
            "immunityFrom": [],
            "overriddenBy": [],
            "overrides": []
        },
        "removable": true,
        "rules": [],
        "source": {
            "value": ""
        },
        "sources": {
            "hud": false
        },
        "traits": {
            "value": []
        },
        "usage": {
            "value": "held-in-one-hand"
        },
        "value": {
            "immutable": false,
            "isValued": true,
            "modifiers": [],
            "value": 1
        }
    },
    "effects": [],
    "flags": {
        "pf2e": {
            "condition": true
        }
    },
    "img": "systems/pf2e/icons/conditions/stupefied.png",
    "name": "Stupefied",
    "permission": {
        "default": 0
    },
    "type": "condition"
}
