{
    "_id": "e4nkDjB1Y6nqaK2G",
    "content": "<p><span class=\"fontstyle0\">A friend or family member whom you trusted more than anyone else betrayed you. </span></p>\n<p><span class=\"fontstyle0\">Add the <a class=\"entity-link\" draggable=\"true\" data-pack=\"pf2e.feats-srd\" data-id=\"Dvz54d6aPhjsmUux\"><i class=\"fas fa-suitcase\"></i> Lie To Me</a> skill feat to your background options.</span> <br style=\"font-style: normal; font-variant: normal; font-weight: normal; letter-spacing: normal; line-height: normal; orphans: 2; text-align: -webkit-auto; text-indent: 0px; text-transform: none; white-space: normal; widows: 2; word-spacing: 0px; -webkit-text-size-adjust: auto; -webkit-text-stroke-width: 0px;\"><br></p>",
    "flags": {},
    "name": "Betrayed",
    "permission": {
        "default": 0
    }
}
