{
    "_id": "2cyhXgGkmoFe3Phw",
    "content": "<p><span class=\"fontstyle0\">A mentor or patron took an interest in your development and volunteered to train or sponsor you. </span></p>\n<p><span class=\"fontstyle0\">A</span><span class=\"fontstyle0\">dd the <a class=\"entity-link\" draggable=\"true\" data-pack=\"pf2e.feats-srd\" data-id=\"sMm0UfYxEPpq2Yzd\"><i class=\"fas fa-suitcase\"></i> Experienced Professional</a> skill feat to your background options.</span> <br style=\"font-style: normal; font-variant: normal; font-weight: normal; letter-spacing: normal; line-height: normal; orphans: 2; text-align: -webkit-auto; text-indent: 0px; text-transform: none; white-space: normal; widows: 2; word-spacing: 0px; -webkit-text-size-adjust: auto; -webkit-text-stroke-width: 0px;\"><br></p>",
    "flags": {},
    "name": "Trained by a Mentor",
    "permission": {
        "default": 0
    }
}
