{
    "_id": "TKr8IL5F3cxsfHPH",
    "data": {
        "brokenThreshold": {
            "value": 0
        },
        "bulkCapacity": {
            "value": ""
        },
        "collapsed": {
            "value": false
        },
        "containerId": {
            "value": ""
        },
        "description": {
            "chat": "",
            "unidentified": "",
            "value": "<p>This aeon stone allows you to cast the 1st-level <a class=\"entity-link\" draggable=\"true\" data-pack=\"pf2e.spells-srd\" data-id=\"TVKNbcgTee19PXZR\"><i class=\"fas fa-suitcase\"></i> Shield</a> cantrip as an arcane innate spell, surrounding yourself in pink energy.</p>\n<p>The resonant power increases the damage prevented by your aeon stone’s shield spell from 5 to 10.</p>"
        },
        "equipped": {
            "value": false
        },
        "equippedBulk": {
            "value": ""
        },
        "hardness": {
            "value": 0
        },
        "hp": {
            "value": 0
        },
        "identified": {
            "value": false
        },
        "invested": {
            "value": false
        },
        "level": {
            "value": "3"
        },
        "maxHp": {
            "value": 0
        },
        "negateBulk": {
            "value": "0"
        },
        "preciousMaterial": {
            "value": ""
        },
        "preciousMaterialGrade": {
            "value": ""
        },
        "price": {
            "value": "50 gp"
        },
        "quantity": {
            "value": "1"
        },
        "rarity": {
            "value": "common"
        },
        "rules": [],
        "source": {
            "value": ""
        },
        "stackGroup": {
            "value": ""
        },
        "traits": {
            "custom": "",
            "rarity": {
                "value": "uncommon"
            },
            "usage": {
                "value": "held-in-one-hand"
            },
            "value": [
                "invested",
                "magical",
                "transmutation"
            ]
        },
        "usage": {
            "value": "held-in-one-hand"
        },
        "weight": {
            "value": "-"
        }
    },
    "effects": [],
    "flags": {
        "core": {
            "sourceId": "Item.777CCn5LlTkuJ6Z0"
        }
    },
    "img": "systems/pf2e/icons/equipment/worn-items/other-worn-items/aeon-stone-dusty-rose-prism.jpg",
    "name": "Aeon Stone (Dusty Rose Prism)",
    "permission": {
        "default": 0
    },
    "type": "equipment"
}
