{
    "_id": "drY7DJ9rMQEP0et8",
    "data": {
        "description": {
            "chat": "",
            "unidentified": "",
            "value": "<div><strong>Weapons</strong> longspear, staff</div>\n<div><strong>Gear</strong> adventurer’s pack, bandolier, climbing kit,</div>\n<div>grappling hook, lesser smokestick</div>"
        },
        "equippedBulk": {
            "value": ""
        },
        "items": {
            "7fb5x": {
                "id": "aXuJh4i8HqSu6NYV",
                "img": "systems/pf2e/icons/equipment/weapons/longspear.jpg",
                "isContainer": false,
                "items": {},
                "name": "Longspear",
                "pack": "pf2e.equipment-srd",
                "quantity": 1
            },
            "7r1bn": {
                "id": "9UJbMaglf35GVzaZ",
                "img": "systems/pf2e/icons/equipment/adventuring-gear/climbing-kit.jpg",
                "isContainer": false,
                "items": {},
                "name": "Climbing Kit",
                "pack": "pf2e.equipment-srd",
                "quantity": 1
            },
            "dm363": {
                "id": "2req0jGaxz8hScdB",
                "img": "systems/pf2e/icons/equipment/adventuring-gear/adventurers-pack.jpg",
                "isContainer": true,
                "items": {},
                "name": "Adventurer's Pack",
                "pack": "pf2e.equipment-srd",
                "quantity": 1
            },
            "e3xor": {
                "id": "6DCy7tEF1cxaIJMy",
                "img": "systems/pf2e/icons/equipment/adventuring-gear/grapling-hook.jpg",
                "isContainer": false,
                "items": {},
                "name": "Grappling Hook",
                "pack": "pf2e.equipment-srd",
                "quantity": 1
            },
            "mz4wa": {
                "id": "HamOU17sqb5ljiB5",
                "img": "systems/pf2e/icons/equipment/adventuring-gear/bandolier.jpg",
                "isContainer": true,
                "items": {},
                "name": "Bandolier",
                "pack": "pf2e.equipment-srd",
                "quantity": 1
            },
            "nkerf": {
                "id": "B6B7tBWJSqOBz5zz",
                "img": "systems/pf2e/icons/equipment/treasure/currency/gold-pieces.jpg",
                "isContainer": false,
                "items": {},
                "name": "Gold Pieces",
                "pack": "pf2e.equipment-srd",
                "quantity": 10
            },
            "of5k3": {
                "id": "MoBlVd36uD9xVvZC",
                "img": "systems/pf2e/icons/equipment/alchemical-items/alchemical-tools/smokestick.jpg",
                "isContainer": false,
                "items": {},
                "name": "Smokestick (Lesser)",
                "pack": "pf2e.equipment-srd",
                "quantity": 1
            },
            "s0w1v": {
                "id": "5Ew82vBF9YfaiY9f",
                "img": "systems/pf2e/icons/equipment/treasure/currency/silver-pieces.jpg",
                "isContainer": false,
                "items": {},
                "name": "Silver Pieces",
                "pack": "pf2e.equipment-srd",
                "quantity": 2
            },
            "yjaep": {
                "id": "FVjTuBCIefAgloUU",
                "img": "systems/pf2e/icons/equipment/staff.png",
                "isContainer": false,
                "items": {},
                "name": "Staff",
                "pack": "pf2e.equipment-srd",
                "quantity": 1
            }
        },
        "price": {
            "value": "4 gp, 9 sp"
        },
        "rarity": {
            "value": "common"
        },
        "source": {
            "value": ""
        },
        "traits": {
            "custom": "",
            "rarity": {
                "value": "common"
            },
            "value": [
                "monk"
            ]
        },
        "usage": {
            "value": "held-in-one-hand"
        },
        "weight": {
            "value": "-"
        }
    },
    "effects": [],
    "flags": {},
    "img": "systems/pf2e/icons/equipment/adventuring-gear/classkit-monk.jpg",
    "name": "Class Kit (Monk)",
    "permission": {
        "default": 0
    },
    "type": "kit"
}
