{
    "_id": "2mt15LcfMArk7JqT",
    "data": {
        "brokenThreshold": {
            "value": 0
        },
        "bulkCapacity": {
            "value": ""
        },
        "collapsed": {
            "value": false
        },
        "containerId": {
            "value": ""
        },
        "description": {
            "chat": "",
            "unidentified": "",
            "value": "<p>This item is a formula book, religious text, or spellbook that has been creased—possibly by Princess Ganjay herself—to fold up into an impossibly small shape. When folded up, the book can’t be read or used, but its Bulk is reduced by 1 (a book that is 1 Bulk becomes light Bulk, and a book that is light Bulk becomes negligible in weight).</p>\n<hr>\n<p><strong>Activate </strong>1 minute (Interact) You fold or unfold the Ganjay book, manipulating the cunning creases.</p>"
        },
        "equipped": {
            "value": false
        },
        "equippedBulk": {
            "value": ""
        },
        "hardness": {
            "value": 0
        },
        "hp": {
            "value": 0
        },
        "identified": {
            "value": false
        },
        "invested": {
            "value": false
        },
        "level": {
            "value": "1"
        },
        "maxHp": {
            "value": 0
        },
        "negateBulk": {
            "value": "0"
        },
        "preciousMaterial": {
            "value": ""
        },
        "preciousMaterialGrade": {
            "value": ""
        },
        "price": {
            "value": "10 gp"
        },
        "quantity": {
            "value": "1"
        },
        "rarity": {
            "value": "common"
        },
        "rules": [],
        "source": {
            "value": ""
        },
        "stackGroup": {
            "value": ""
        },
        "traits": {
            "rarity": {
                "value": "uncommon"
            },
            "usage": {
                "value": "held-in-one-hand"
            },
            "value": []
        },
        "usage": {
            "value": "held-in-one-hand"
        },
        "weight": {
            "value": "L"
        }
    },
    "effects": [],
    "flags": {
        "core": {
            "sourceId": "Item.R53s6LLIFClqhQTt"
        }
    },
    "img": "systems/pf2e/icons/equipment/held-items/ganjay-book.jpg",
    "name": "Ganjay Book (1 bulk book)",
    "permission": {
        "default": 0
    },
    "type": "equipment"
}
