{
    "_id": "vAEQsYQbOYmqfIc0",
    "data": {
        "activation": {
            "condition": "",
            "cost": 0,
            "type": ""
        },
        "autoDestroy": {
            "_deprecated": true,
            "value": true
        },
        "autoUse": {
            "_deprecated": true,
            "value": true
        },
        "brokenThreshold": {
            "value": 0
        },
        "bulkCapacity": {
            "value": ""
        },
        "charges": {
            "_deprecated": true,
            "max": "1",
            "value": "1"
        },
        "collapsed": {
            "value": false
        },
        "consumableType": {
            "value": "potion"
        },
        "consume": {
            "_deprecated": true,
            "value": null
        },
        "containerId": {
            "value": ""
        },
        "description": {
            "chat": "",
            "unidentified": "",
            "value": "<p><strong>Activate&nbsp;</strong><span style=\"font-family: 'Pathfinder2eActions'; font-size: 1.8em; display: inline;\">1</span> Interact;</p>\n<p>This thick orange cream quickly seeps into skin. In addition to causing painful swelling in the brain, liar's demise compels the victim to speak only the truth. While under the effect of liar's demise, you take the listed poison damage and mental damage for any time you voluntarily and knowingly tell a lie, due to the poison's increased blood pressure to your brain. You take this damage once per round, even if you lie several times in rapid succession. You're aware of this effect and can choose to not answer or give only evasive, technically truthful, answers; this is a mental effect.</p>\n<hr />\n<p><strong>Saving Throw</strong> DC 34 Fortitude;</p>\n<p><strong>Onset</strong> 1 minute;</p>\n<p><strong>Maximum Duration</strong> 6 minutes;</p>\n<p><strong>Stage 1</strong> @Compendium[pf2e.conditionitems.e1XGnhKNSQIm5IXg]{Stupefied} 1, [[/r 3d6 #poison]] poison damage and [[/r 3d6 #mental]] mental damage for lying (1 minute);</p>\n<p><strong>Stage 2</strong> stupefied 2, [[/r 4d6 #poison]] poison damage and [[/r 4d6 #mental]] mental damage for lying (1 minute);</p>\n<p><strong>Stage 3</strong> stupefied 3, [[/r 5d6 #poison]] poison damage and [[/r 5d6 #mental]] mental damage for lying, and the damage becomes a death effect. If it reduces you to 0 Hit Points, your head explodes and you die. (1 minute)</p>\n<hr />\n<p><strong>Craft Requirements</strong> Supply one casting of @Compendium[pf2e.spells-srd.aewxsale5xWEPKLk]{Zone of Truth}.</p>"
        },
        "duration": {
            "units": "",
            "value": null
        },
        "equipped": {
            "value": false
        },
        "equippedBulk": {
            "value": ""
        },
        "hardness": {
            "value": 0
        },
        "hp": {
            "value": 0
        },
        "identified": {
            "value": false
        },
        "invested": {
            "value": false
        },
        "level": {
            "value": "14"
        },
        "maxHp": {
            "value": 0
        },
        "negateBulk": {
            "value": "0"
        },
        "preciousMaterial": {
            "value": ""
        },
        "preciousMaterialGrade": {
            "value": ""
        },
        "price": {
            "value": "650 gp"
        },
        "quantity": {
            "value": "1"
        },
        "range": {
            "long": null,
            "units": "",
            "value": null
        },
        "rarity": {
            "value": "common"
        },
        "rules": [],
        "source": {
            "value": ""
        },
        "stackGroup": {
            "value": ""
        },
        "target": {
            "type": "",
            "units": "",
            "value": null
        },
        "traits": {
            "custom": "",
            "rarity": {
                "value": "uncommon"
            },
            "usage": {
                "value": "held-in-two-hands"
            },
            "value": [
                "consumable",
                "contact",
                "divine",
                "poison"
            ]
        },
        "usage": {
            "value": "held-in-one-hand"
        },
        "uses": {
            "autoDestroy": true,
            "autoUse": true,
            "max": 0,
            "per": null,
            "value": 0
        },
        "weight": {
            "value": "L"
        }
    },
    "effects": [],
    "flags": {
        "core": {
            "sourceId": "Item.XI9QrNiWAZkwihoz"
        }
    },
    "img": "icons/svg/mystery-man.svg",
    "name": "Liar's Demise",
    "permission": {
        "default": 0
    },
    "type": "consumable"
}
