{
    "_id": "YScPBPwB4t9sydp0",
    "data": {
        "activation": {
            "condition": "",
            "cost": 0,
            "type": ""
        },
        "autoDestroy": {
            "_deprecated": true,
            "value": true
        },
        "autoUse": {
            "_deprecated": true,
            "value": true
        },
        "brokenThreshold": {
            "value": 0
        },
        "bulkCapacity": {
            "value": ""
        },
        "charges": {
            "_deprecated": true,
            "max": "1",
            "value": "1"
        },
        "collapsed": {
            "value": false
        },
        "consumableType": {
            "value": "poison"
        },
        "consume": {
            "_deprecated": true,
            "value": null
        },
        "containerId": {
            "value": ""
        },
        "description": {
            "chat": "",
            "unidentified": "",
            "value": "<p><strong>Activate&nbsp;</strong><span style=\"font-family: 'Pathfinder2eActions'; font-size: 1.8em; display: inline;\">2</span>&nbsp;Interact;</p>\n<p>This gummy resin contains sparkling motes of magical energy that dramatically impair your cognitive functions and dispel spells as you cast them. Spell energy manifests but then sputters out, as though drained away by the sparkling motes. While you're @Compendium[pf2e.conditionitems.e1XGnhKNSQIm5IXg]{Stupefied} by this poison, the DC of flat checks to avoid disruption from the stupefied condition when you Cast a Spell is 5 + twice the stupefied value, rather than 5 + the stupefied value.</p>\n<hr />\n<p>S<strong>aving Throw</strong> DC 31 Fortitude;</p>\n<p><strong>Maximum Duration</strong> 6 rounds;</p>\n<p><strong>Stage 1</strong> [[/r 5d6 #poison]] poison damage and stupefied 1 (1 round);</p>\n<p><strong>Stage 2</strong> [[/r 6d6 #poison]] poison damage and stupefied 3 (1 round);</p>\n<p><strong>Stage 3</strong> [[/r 7d6 #poison]] poison damage and stupefied 4 (1 round)</p>\n<hr />\n<p><strong>Craft Requirements</strong> Supply one casting of 6th-level @Compendium[pf2e.spells-srd.9HpwDN4MYQJnW0LG]{Dispel Magic}.</p>"
        },
        "duration": {
            "units": "",
            "value": null
        },
        "equipped": {
            "value": false
        },
        "equippedBulk": {
            "value": ""
        },
        "hardness": {
            "value": 0
        },
        "hp": {
            "value": 0
        },
        "identified": {
            "value": false
        },
        "invested": {
            "value": false
        },
        "level": {
            "value": "12"
        },
        "maxHp": {
            "value": 0
        },
        "negateBulk": {
            "value": "0"
        },
        "preciousMaterial": {
            "value": ""
        },
        "preciousMaterialGrade": {
            "value": ""
        },
        "price": {
            "value": "325 gp"
        },
        "quantity": {
            "value": "1"
        },
        "range": {
            "long": null,
            "units": "",
            "value": null
        },
        "rarity": {
            "value": "common"
        },
        "rules": [],
        "source": {
            "value": ""
        },
        "stackGroup": {
            "value": ""
        },
        "target": {
            "type": "",
            "units": "",
            "value": null
        },
        "traits": {
            "custom": "",
            "rarity": {
                "value": "uncommon"
            },
            "usage": {
                "value": "held-in-two-hands"
            },
            "value": [
                "consumable",
                "divine",
                "injury",
                "poison"
            ]
        },
        "usage": {
            "value": "held-in-one-hand"
        },
        "uses": {
            "autoDestroy": true,
            "autoUse": true,
            "max": 0,
            "per": null,
            "value": 0
        },
        "weight": {
            "value": "L"
        }
    },
    "effects": [],
    "flags": {
        "core": {
            "sourceId": "Item.6Ny5RJDYlWtC2qz7"
        }
    },
    "img": "icons/svg/mystery-man.svg",
    "name": "Spell-Eating Pitch",
    "permission": {
        "default": 0
    },
    "type": "consumable"
}
