{
    "_id": "K878asDgf1EF0B9S",
    "data": {
        "actionCategory": {
            "value": ""
        },
        "actionType": {
            "value": "action"
        },
        "actions": {
            "value": ""
        },
        "description": {
            "chat": "",
            "unidentified": "",
            "value": "<p>You make an incredibly graceful attack, piercing your foe's defenses. Make a <a class=\"entity-link\" draggable=\"true\" data-pack=\"pf2e.actionspf2e\" data-id=\"VjxZFuUXrCU94MWR\"> Strike</a> with a weapon or unarmed attack that would apply your precise strike damage, with the following failure effect.</p>\n<hr>\n<p><strong>Failure </strong>You deal half your <a class=\"entity-link\" draggable=\"true\" data-pack=\"pf2e.classfeatures\" data-id=\"RQH6vigvhmiYKKjg\"> Precise Strike</a> damage to the target. This damage typeis that of the weapon or unarmed attack you used for the Strike.</p>"
        },
        "rarity": {
            "value": "common"
        },
        "requirements": {
            "value": ""
        },
        "rules": [],
        "skill_requirement": {
            "skill": {
                "rank": "",
                "skill": ""
            }
        },
        "skill_requirements": {
            "rank": "",
            "skill": ""
        },
        "source": {
            "value": ""
        },
        "traits": {
            "value": []
        },
        "trigger": {
            "value": ""
        },
        "usage": {
            "value": "held-in-one-hand"
        },
        "weapon": {
            "value": ""
        }
    },
    "effects": [],
    "flags": {},
    "img": "systems/pf2e/icons/actions/OneAction.png",
    "name": "Confident Finisher",
    "permission": {
        "default": 0
    },
    "type": "action"
}
