{
    "_id": "xccOiNL2W1EtfUYl",
    "data": {
        "actionCategory": {
            "value": ""
        },
        "actionType": {
            "value": "action"
        },
        "actions": {
            "value": "1"
        },
        "description": {
            "chat": "",
            "unidentified": "",
            "value": "<p>You ask a question that charms or needles someone in just the right way. Ask a question of a non-allied creature that you can see and have been conversing with. Attempt a Diplomacy check against the creature's Will DC. The creature is then temporarily immune for 1 hour.</p>\n<hr>\n<p><strong>Critical Success</strong> The target must directly answer your question. It doesn't have to answer truthfully, but you gain a +4 circumstance bonus to your Perception DC if the creature attempts to <a class=\"entity-link\" draggable=\"true\" data-pack=\"pf2e.actionspf2e\" data-id=\"ewwCglB7XOPLUz72\"><i class=\"fas fa-suitcase\"></i> Lie</a> to you.</p>\n<p><strong>Success </strong>As critical success, but the circumstance bonus is +2.</p>\n<p><strong>Failure </strong>The target can refuse to answer you as normal.</p>\n<p><strong>Critical Failure </strong>The target can refuse to answer you as normal, and its attitude toward you decreases by one step due to your aggravating attention.</p>"
        },
        "rarity": {
            "value": "common"
        },
        "requirements": {
            "value": ""
        },
        "rules": [],
        "skill_requirement": {
            "skill": {
                "rank": "",
                "skill": ""
            }
        },
        "skill_requirements": {
            "rank": "",
            "skill": ""
        },
        "source": {
            "value": ""
        },
        "traits": {
            "custom": "",
            "value": [
                "auditory",
                "concentrate",
                "investigator",
                "linguistic",
                "mental"
            ]
        },
        "trigger": {
            "value": ""
        },
        "usage": {
            "value": "held-in-one-hand"
        },
        "weapon": {
            "value": ""
        }
    },
    "effects": [],
    "flags": {},
    "img": "systems/pf2e/icons/actions/OneAction.png",
    "name": "Pointed Question",
    "permission": {
        "default": 0
    },
    "type": "action"
}
