{
    "_id": "fJImDBQfqfjKJOhk",
    "data": {
        "actionCategory": {
            "value": ""
        },
        "actionType": {
            "label": "Action Type",
            "type": "String",
            "value": "passive"
        },
        "actions": {
            "label": "Number of Actions",
            "type": "String",
            "value": ""
        },
        "description": {
            "chat": "",
            "label": "Description",
            "type": "String",
            "unidentified": "",
            "value": "<p>Using the stars, the position of the sun, traits of the geography or flora, or the behavior of fauna, you can stay oriented in the wild. Typically, you attempt a Survival check only once per day, but some environments or changes might necessitate rolling more often. The GM determines the DC and how long this activity takes (usually just a minute or so). More unusual locales or those you're unfamiliar with might require you to have a minimum proficiency rank to Sense Direction. Without a <a class=\"entity-link\" draggable=\"true\" data-pack=\"pf2e.equipment-srd\" data-id=\"wob6DB1FFdWs0mbp\"><i class=\"fas fa-suitcase\"></i> Compass</a>, you take a –2 item penalty to checks to Sense Direction.</p>\n<hr>\n<p><strong>Critical Success</strong> You get an excellent sense of where you are. If you are in an environment with cardinal directions, you know them exactly.</p>\n<p><strong>Success</strong> You gain enough orientation to avoid becoming hopelessly lost. If you are in an environment with cardinal directions, you have a sense of those directions.</p>\n<p>&nbsp;</p>\n<h2 class=\"title\">Sample Sense Direction Tasks</h2>\n<ul>\n<li><strong>Untrained</strong> determine a cardinal direction using the sun</li>\n<li><strong>Trained</strong> find an overgrown path in a forest</li>\n<li><strong>Expert</strong> navigate a hedge maze</li>\n<li><strong>Master</strong> navigate a byzantine labyrinth or relatively featureless desert</li>\n<li><strong>Legendary</strong> navigate an ever-changing dream realm</li>\n</ul>"
        },
        "rarity": {
            "value": "common"
        },
        "requirements": {
            "label": "Requirements",
            "type": "String",
            "value": ""
        },
        "rules": [],
        "skill_requirement": {
            "label": "Skill Req.",
            "skill": {
                "rank": "0",
                "skill": "survival",
                "type": "Number"
            },
            "type": "String"
        },
        "skill_requirements": {
            "rank": "",
            "skill": ""
        },
        "source": {
            "label": "Source",
            "type": "String",
            "value": ""
        },
        "traits": {
            "custom": "",
            "label": "Traits",
            "type": "String",
            "value": [
                "skill",
                "secret",
                "exploration"
            ]
        },
        "trigger": {
            "label": "Trigger",
            "type": "String",
            "value": ""
        },
        "usage": {
            "value": "held-in-one-hand"
        },
        "weapon": {
            "label": "Associated Weapon",
            "type": "String",
            "value": ""
        }
    },
    "effects": [],
    "flags": {},
    "img": "icons/svg/mystery-man.svg",
    "name": "Sense Direction",
    "permission": {
        "default": 0
    },
    "type": "action"
}
