{
    "_id": "c8TGiZ48ygoSPofx",
    "data": {
        "actionCategory": {
            "value": ""
        },
        "actionType": {
            "label": "Action Type",
            "type": "String",
            "value": "action"
        },
        "actions": {
            "label": "Number of Actions",
            "type": "String",
            "value": "1"
        },
        "description": {
            "chat": "",
            "label": "Description",
            "type": "String",
            "unidentified": "",
            "value": "<p>You propel yourself through water. In most calm water, you succeed at the action without needing to attempt a check. If you must breathe air and you're submerged in water, you must hold your breath each round. If you fail to hold your breath, you begin to drown. If the water you are swimming in is turbulent or otherwise dangerous, you might have to attempt an Athletics check to Swim.</p>\n<p>If you end your turn in water and haven't succeeded at a Swim action that turn, you sink 10 feet or get moved by the current, as determined by the GM. However, if your last action on your turn was to enter the water, you don't sink or move with the current that turn.</p>\n<hr>\n<p><strong>Critical Success</strong> You move through the water 10 feet, plus 5 feet per 20 feet of your land Speed (a total of 15 feet for most PCs).</p>\n<p><strong>Success </strong>You move through the water 5 feet, plus 5 feet per 20 feet of your land Speed (a total of 10 feet for most PCs).</p>\n<p><strong>Critical Failure</strong> You make no progress, and if you're holding your breath, you lose 1 round of air.</p>\n<p>&nbsp;</p>\n<h2>Sample Swim Tasks</h2>\n<ul>\n<li><strong>Untrained </strong>lake or other still water</li>\n<li><strong>Trained </strong>flowing water, like a river</li>\n<li><strong>Expert</strong> swiftly flowing river</li>\n<li><strong>Master </strong>stormy sea</li>\n<li><strong>Legendary </strong>maelstrom, waterfall</li>\n</ul>"
        },
        "rarity": {
            "value": "common"
        },
        "requirements": {
            "label": "Requirements",
            "type": "String",
            "value": ""
        },
        "rules": [],
        "skill_requirement": {
            "label": "Skill Req.",
            "skill": {
                "rank": "0",
                "skill": "athletics",
                "type": "Number"
            },
            "type": "String"
        },
        "skill_requirements": {
            "rank": "",
            "skill": ""
        },
        "source": {
            "label": "Source",
            "type": "String",
            "value": ""
        },
        "traits": {
            "custom": "",
            "label": "Traits",
            "type": "String",
            "value": [
                "move",
                "skill"
            ]
        },
        "trigger": {
            "label": "Trigger",
            "type": "String",
            "value": ""
        },
        "usage": {
            "value": "held-in-one-hand"
        },
        "weapon": {
            "label": "Associated Weapon",
            "type": "String",
            "value": ""
        }
    },
    "effects": [],
    "flags": {},
    "img": "systems/pf2e/icons/actions/OneAction.png",
    "name": "Swim",
    "permission": {
        "default": 0
    },
    "type": "action"
}
