{
    "_id": "1kGNdIIhuglAjIp9",
    "data": {
        "actionCategory": {
            "value": ""
        },
        "actionType": {
            "label": "Action Type",
            "type": "String",
            "value": "passive"
        },
        "actions": {
            "label": "Number of Actions",
            "type": "String",
            "value": ""
        },
        "description": {
            "chat": "",
            "label": "Description",
            "type": "String",
            "unidentified": "",
            "value": "<p><strong>Requirements </strong>You have <a class=\"entity-link\" draggable=\"true\" data-pack=\"pf2e.equipment-srd\" data-id=\"s1vB3HdXjMigYAnY\"> Healer's Tools</a></p>\n<hr>\n<p>You spend 10 minutes treating one injured living creature (targeting yourself, if you so choose). The target is then temporarily immune to Treat Wounds actions for 1 hour, but this interval overlaps with the time you spent treating (so a patient can be treated once per hour, not once per 70 minutes).</p>\n<p>The Medicine check DC is usually 15, though the GM might adjust it based on the circumstances, such as treating a patient outside in a storm, or treating magically cursed wounds. If you're an expert in Medicine, you can instead attempt a DC 20 check to increase the Hit Points regained by 10; if you're a master of Medicine, you can instead attempt a DC 30 check to increase the Hit Points regained by 30; and if you're legendary, you can instead attempt a DC 40 check to increase the Hit Points regained by 50. The damage dealt on a critical failure remains the same.</p>\n<p>If you succeed at your check, you can continue treating the target to grant additional healing. If you treat them for a total of 1 hour, double the Hit Points they regain from Treat Wounds.</p>\n<p>The result of your Medicine check determines how many Hit Points the target regains.</p>\n<hr>\n<p><strong>Critical Success</strong> The target regains 4d8 Hit Points, and its <a class=\"entity-link\" draggable=\"true\" data-pack=\"pf2e.conditionitems\" data-id=\"Yl48xTdMh3aeQYL2\"> Wounded</a> condition is removed.</p>\n<p><strong>Success</strong> The target regains 2d8 Hit Points, and its wounded condition is removed.</p>\n<p><strong>Critical Failure</strong> The target takes 1d8 damage.</p>"
        },
        "rarity": {
            "value": "common"
        },
        "requirements": {
            "label": "Requirements",
            "type": "String",
            "value": ""
        },
        "rules": [],
        "skill_requirement": {
            "label": "Skill Req.",
            "skill": {
                "rank": "1",
                "skill": "medicine",
                "type": "Number"
            },
            "type": "String"
        },
        "skill_requirements": {
            "rank": "",
            "skill": ""
        },
        "source": {
            "label": "Source",
            "type": "String",
            "value": ""
        },
        "traits": {
            "custom": "",
            "label": "Traits",
            "type": "String",
            "value": [
                "manipulate",
                "skill",
                "healing",
                "exploration"
            ]
        },
        "trigger": {
            "label": "Trigger",
            "type": "String",
            "value": ""
        },
        "usage": {
            "value": "held-in-one-hand"
        },
        "weapon": {
            "label": "Associated Weapon",
            "type": "String",
            "value": ""
        }
    },
    "effects": [],
    "flags": {},
    "img": "icons/svg/mystery-man.svg",
    "name": "Treat Wounds",
    "permission": {
        "default": 0
    },
    "type": "action"
}
