{
    "_id": "NM5a1tF0OW5mVYdR",
    "data": {
        "actionCategory": {
            "value": ""
        },
        "actionType": {
            "value": "passive"
        },
        "actions": {
            "value": ""
        },
        "description": {
            "chat": "",
            "unidentified": "",
            "value": "<p><strong>Prerequisites </strong>@Compendium[pf2e.feats-srd.tha0L3Z6608JrUwN]{Shadow Magic}</p>\n<hr>\n<p>Choose an additional shadowdancer focus spell you haven't already selected from Shadow Magic. Increase the number of Focus Points in your pool by 1.</p>"
        },
        "featType": {
            "value": "archetype"
        },
        "level": {
            "value": "12"
        },
        "prerequisites": {
            "value": "Shadow Magic"
        },
        "rarity": {
            "value": "common"
        },
        "source": {
            "value": ""
        },
        "traits": {
            "rarity": {
                "value": "common"
            },
            "value": [
                "archetype"
            ]
        },
        "usage": {
            "value": ""
        }
    },
    "flags": {},
    "img": "systems/pf2e/icons/features/feats/feats.jpg",
    "name": "Additional Shadow Magic",
    "permission": {
        "default": 0
    },
    "type": "feat"
}
