{
    "_id": "z7kwVNaCB4oJs3Fe",
    "data": {
        "actionCategory": {
            "value": ""
        },
        "actionType": {
            "value": "passive"
        },
        "actions": {
            "value": ""
        },
        "description": {
            "chat": "",
            "unidentified": "",
            "value": "<p><strong>Prerequisites </strong><a class=\"entity-link\" data-pack=\"pf2e.feats-srd\" data-id=\"u3qBWp8ecalSwEk4\" draggable=\"true\"><i class=\"fas fa-suitcase\"></i> Esoteric Oath</a></p>\n<hr>\n<p>Your aura protects against the twisting powers of aberrations. You and all allies within 15 feet gain a +1 status bonus to Fortitude and Will saves against effects from aberrations.</p>\n<p>You also gain a +1 status bonus to Fortitude saves against morph or polymorph effects and Will saves against mental effects; this bonus increases to +2 against aberrations' morph, polymorph, or mental effects.</p>"
        },
        "featType": {
            "value": "class"
        },
        "level": {
            "value": "14"
        },
        "prerequisites": {
            "value": "Esoteric Oath"
        },
        "rarity": {
            "value": "common"
        },
        "source": {
            "value": ""
        },
        "traits": {
            "rarity": {
                "value": "common"
            },
            "value": [
                "champion"
            ]
        },
        "usage": {
            "value": ""
        }
    },
    "flags": {},
    "img": "systems/pf2e/icons/features/feats/feats.jpg",
    "name": "Aura Of Preservation",
    "permission": {
        "default": 0
    },
    "type": "feat"
}
