{
    "_id": "H3I2X0f7v4EzwxuN",
    "data": {
        "actionCategory": {
            "value": ""
        },
        "actionType": {
            "label": "Action Type",
            "type": "String",
            "value": "passive"
        },
        "actions": {
            "label": "Number of Actions",
            "type": "String",
            "value": ""
        },
        "description": {
            "chat": "",
            "label": "Description",
            "type": "String",
            "unidentified": "",
            "value": "<p><strong>Prerequisites</strong> expert in a skill with the Recall Knowledge action, Assurance in that skill</p>\n<hr>\n<p>You know basic facts off the top of your head. Choose a skill you're an expert in that has the Recall Knowledge action and for which you have the Assurance feat. You can use the Recall Knowledge action with that skill as a free action once per round. If you do, you must use Assurance on the skill check.</p>\n<p><strong>Special</strong> You can select this feat multiple times, choosing a different skill each time. You can use Automatic Knowledge with any skills you have chosen, but you can still use Automatic Knowledge only once per round.</p>"
        },
        "featType": {
            "label": "Feat Type",
            "type": "String",
            "value": "skill"
        },
        "level": {
            "label": "Feat Level",
            "type": "String",
            "value": "2"
        },
        "prerequisites": {
            "label": "Prerequisites",
            "type": "String",
            "value": "expert in a skill with the Recall Knowledge action, Assurance in that skill"
        },
        "rarity": {
            "value": "common"
        },
        "source": {
            "label": "Source",
            "type": "String",
            "value": ""
        },
        "traits": {
            "custom": "",
            "label": "Traits",
            "rarity": {
                "value": "common"
            },
            "type": "String",
            "value": [
                "general",
                "skill"
            ]
        },
        "usage": {
            "value": "held-in-one-hand"
        }
    },
    "flags": {},
    "img": "systems/pf2e/icons/features/feats/feats.jpg",
    "name": "Automatic Knowledge",
    "permission": {
        "default": 0
    },
    "type": "feat"
}
