{
    "_id": "nAgAICjPd4BSQlAj",
    "data": {
        "actionCategory": {
            "value": ""
        },
        "actionType": {
            "value": "passive"
        },
        "actions": {
            "value": ""
        },
        "description": {
            "chat": "",
            "unidentified": "",
            "value": "<p><span id=\"ctl00_MainContent_DetailedOutput\"><strong>Archetype</strong> @Compendium[pf2e.archetypes.VRUYc3QyRjjOjppc]{Turpin Rowe Lumberjack}<br><strong>Prerequisites</strong> Turpin Rowe Lumberjack Dedication<br></span></p>\n<hr>\n<p>When you are climbing a wooden surface and have a @Compendium[pf2e.equipment-srd.LGgvev6AV0So8tP9]{Hatchet} or @Compendium[pf2e.equipment-srd.War0uyLBx1jA0Ge7]{Battle Axe} in each hand, you have a climb Speed equal to half your normal Speed. You must still have both legs available to climb and can't use either of the axes in combat while climbing. This feat can also be used to climb a surface of ice if you have a @Compendium[pf2e.equipment-srd.RbM4HvPyrZ4YJxRc]{Light Pick} in each hand.&nbsp;</p>"
        },
        "featType": {
            "value": "archetype"
        },
        "level": {
            "value": "4"
        },
        "prerequisites": {
            "value": ""
        },
        "rarity": {
            "value": "common"
        },
        "source": {
            "value": ""
        },
        "traits": {
            "custom": "",
            "rarity": {
                "value": "common"
            },
            "value": [
                "archetype"
            ]
        },
        "usage": {
            "value": "held-in-one-hand"
        }
    },
    "flags": {},
    "img": "systems/pf2e/icons/features/feats/feats.jpg",
    "name": "Axe Climber",
    "permission": {
        "default": 0
    },
    "type": "feat"
}
