{
    "_id": "D1o7GUraoFFzjaub",
    "data": {
        "actionCategory": {
            "value": ""
        },
        "actionType": {
            "value": "reaction"
        },
        "actions": {
            "value": ""
        },
        "description": {
            "chat": "",
            "unidentified": "",
            "value": "<p><strong>Prerequisites </strong>@Compendium[pf2e.classfeatures.RyOkmu0W9svavuAB]{Mastermind Racket}</p>\n<p><strong>Trigger</strong> Your @Compendium[pf2e.actionspf2e.VjxZFuUXrCU94MWR]{Strike} critically hits and deals damage to a creature you've identified with@Compendium[pf2e.actionspf2e.1OagaWtBpVXExToo]{Recall Knowledge}</p>\n<hr>\n<p>Your battle tactics are aided by your assessment of your foes' capabilities, allowing you to instantly adjust your movements to maximum advantage.</p>\n<p>You @Compendium[pf2e.actionspf2e.UHpkTuCtyaPqiCAB]{Step} or @Compendium[pf2e.actionspf2e.Bcxarzksqt9ezrs6]{Stride}; this movement doesn't trigger reactions from the triggering creature.</p>"
        },
        "featType": {
            "value": "class"
        },
        "level": {
            "value": "2"
        },
        "prerequisites": {
            "value": "mastermind racket"
        },
        "rarity": {
            "value": "common"
        },
        "source": {
            "value": ""
        },
        "traits": {
            "rarity": {
                "value": "common"
            },
            "value": [
                "rogue"
            ]
        },
        "usage": {
            "value": ""
        }
    },
    "flags": {},
    "img": "systems/pf2e/icons/features/feats/feats.jpg",
    "name": "Clever Gambit",
    "permission": {
        "default": 0
    },
    "type": "feat"
}
