{
    "_id": "JO3mcFvxjRp1V8XK",
    "data": {
        "actionCategory": {
            "value": ""
        },
        "actionType": {
            "value": "passive"
        },
        "actions": {
            "value": ""
        },
        "description": {
            "chat": "",
            "unidentified": "",
            "value": "<p><strong>Prerequisites </strong><a class=\"entity-link\" data-pack=\"pf2e.feats-srd\" data-id=\"aFygWxgSv82WyCsl\" draggable=\"true\"><i class=\"fas fa-suitcase\"></i> Acrobat Dedication</a></p>\n<hr>\n<p>You can squeeze out of tight situations surprisingly quickly, gaining an advantage against foes that try to pin you down. You gain the <a class=\"entity-link\" data-pack=\"pf2e.feats-srd\" data-id=\"3G8xUlgCjRmRJNfP\" draggable=\"true\"><i class=\"fas fa-suitcase\"></i> Quick Squeeze</a> skill feat, and if you're a master in Acrobatics, you can <a class=\"entity-link\" data-pack=\"pf2e.actionspf2e\" data-id=\"kMcV8e5EZUxa6evt\" draggable=\"true\"><i class=\"fas fa-suitcase\"></i> Squeeze</a> at full Speed.</p>\n<p>Whenever you successfully <a class=\"entity-link\" data-pack=\"pf2e.actionspf2e\" data-id=\"SkZAQRkLLkmBQNB9\" draggable=\"true\"><i class=\"fas fa-suitcase\"></i> Escape</a> using Acrobatics, the creature you Escaped from is <a class=\"entity-link\" data-pack=\"pf2e.conditionspf2e\" data-id=\"AJh5ex99aV6VTggg\" draggable=\"true\"><i class=\"fas fa-book-open\"></i> Flat-Footed</a> against the next attack you make against it before the end of your next turn.</p>"
        },
        "featType": {
            "value": "archetype"
        },
        "level": {
            "value": "4"
        },
        "prerequisites": {
            "value": "Acrobat Dedication"
        },
        "rarity": {
            "value": "common"
        },
        "source": {
            "value": ""
        },
        "traits": {
            "rarity": {
                "value": "common"
            },
            "value": [
                "archetype"
            ]
        },
        "usage": {
            "value": ""
        }
    },
    "flags": {},
    "img": "systems/pf2e/icons/features/feats/feats.jpg",
    "name": "Contortionist",
    "permission": {
        "default": 0
    },
    "type": "feat"
}
