{
    "_id": "OjvE7gaQgWiBqOhY",
    "data": {
        "actionCategory": {
            "value": ""
        },
        "actionType": {
            "value": "action"
        },
        "actions": {
            "value": "1"
        },
        "description": {
            "chat": "",
            "unidentified": "",
            "value": "<p><strong>Prerequisites </strong><a class=\"entity-link\" draggable=\"true\" data-pack=\"pf2e.feats-srd\" data-id=\"QnB5ArlO4wlRXQ2E\"> Pathfinder Agent Dedication</a>, <a class=\"entity-link\" draggable=\"true\" data-pack=\"pf2e.feats-srd\" data-id=\"0Dy8RlFqrzCVOTl4\"> Thorough Reports</a></p>\n<p><strong>Requirements </strong>You have successfully identified the target with Recall Knowledge during this combat.</p>\n<hr>\n<p>Identifying a creature is the first step in finding its weaknesses. Attempt a Strike against the target; if successful, you deal an additional <a class=\"inline-roll roll\" title=\"precision\" data-mode=\"roll\" data-flavor=\"precision\" data-formula=\"1d6\"> 1d6</a> precision damage. If you have succeeded on a Recall Knowledge check against the target during this combat and their creature type was previously recorded using <a class=\"entity-link\" draggable=\"true\" data-pack=\"pf2e.feats-srd\" data-id=\"0Dy8RlFqrzCVOTl4\"> Thorough Reports</a>, you also deal <a class=\"inline-roll roll\" title=\"persistent bleed\" data-mode=\"roll\" data-flavor=\"persistent bleed\" data-formula=\"1\"> 1</a> point of persistent bleed damage. The creature is then temporarily immune to Discerning Strike for 1 day.</p>"
        },
        "featType": {
            "value": "archetype"
        },
        "level": {
            "value": "6"
        },
        "prerequisites": {
            "value": "Pathfinder Agent Dedication, Thorough Reports"
        },
        "rarity": {
            "value": "common"
        },
        "rules": [],
        "source": {
            "value": ""
        },
        "traits": {
            "custom": "",
            "rarity": {
                "value": "common"
            },
            "value": [
                "archetype"
            ]
        },
        "usage": {
            "value": "held-in-one-hand"
        }
    },
    "effects": [],
    "flags": {
        "core": {
            "sourceId": "Item.MZyAZpjmkVRuxpkD"
        }
    },
    "img": "systems/pf2e/icons/features/feats/feats.jpg",
    "name": "Discerning Strike",
    "permission": {
        "default": 0
    },
    "type": "feat"
}
