{
    "_id": "j4zGMRiTi5t6guMF",
    "data": {
        "actionCategory": {
            "value": ""
        },
        "actionType": {
            "value": "passive"
        },
        "actions": {
            "value": ""
        },
        "description": {
            "chat": "",
            "unidentified": "",
            "value": "<p><strong>Prerequisites</strong> @Compendium[pf2e.feats-srd.O2MwufzEHbuThoGr]{Attack of Opportunity}</p>\n<hr>\n<p>You use your foes' openings to expose even greater weaknesses. When you hit a creature as part of an Attack of Opportunity, that creature becomes @Compendium[pf2e.conditionspf2e.AJh5ex99aV6VTggg]{Flat-Footed} until the start of your next turn.</p>"
        },
        "featType": {
            "value": "class"
        },
        "level": {
            "value": "8"
        },
        "prerequisites": {
            "value": "Attack of Opportunity"
        },
        "rarity": {
            "value": "common"
        },
        "source": {
            "value": ""
        },
        "traits": {
            "rarity": {
                "value": "common"
            },
            "value": [
                "fighter"
            ]
        },
        "usage": {
            "value": ""
        }
    },
    "flags": {},
    "img": "systems/pf2e/icons/features/feats/feats.jpg",
    "name": "Disorienting Opening",
    "permission": {
        "default": 0
    },
    "type": "feat"
}
