{
    "_id": "sjChYEuEWPqndCSK",
    "data": {
        "actionCategory": {
            "value": ""
        },
        "actionType": {
            "value": "action"
        },
        "actions": {
            "value": "1"
        },
        "description": {
            "chat": "",
            "unidentified": "",
            "value": "<p><strong>Prerequisites</strong> @Compendium[pf2e.feats-srd.YhnCjiHNlS3nCeoC]{Dual-Weapon Warrior Dedication}</p>\n<p><strong>Requirements</strong> You are wielding two one-handed weapons, <br>each in a different hand, one of which is a ranged weapon.</p>\n<hr>\n<p>You carry your ammunition in a way that allows you to reload while holding two weapons. You @Compendium[pf2e.actionspf2e.pvQ5rY2zrtPI614F]{Interact} to reload a one-handed ranged weapon you're holding. Unlike most Interact actions, you don't need a free hand to reload your ranged weapon in this way.</p>"
        },
        "featType": {
            "value": "archetype"
        },
        "level": {
            "value": "4"
        },
        "prerequisites": {
            "value": "Dual-Weapon Warrior Dedication"
        },
        "rarity": {
            "value": "common"
        },
        "source": {
            "value": ""
        },
        "traits": {
            "rarity": {
                "value": "common"
            },
            "value": [
                "archetype"
            ]
        },
        "usage": {
            "value": ""
        }
    },
    "flags": {},
    "img": "systems/pf2e/icons/features/feats/feats.jpg",
    "name": "Dual-Weapon Reload",
    "permission": {
        "default": 0
    },
    "type": "feat"
}
