{
    "_id": "OEwNLolzBarx8icm",
    "data": {
        "actionCategory": {
            "value": ""
        },
        "actionType": {
            "value": "action"
        },
        "actions": {
            "value": "1"
        },
        "description": {
            "chat": "",
            "unidentified": "",
            "value": "<p><strong>Prerequisites </strong><a class=\"entity-link\" draggable=\"true\" data-pack=\"pf2e.feats-srd\" data-id=\"XYaaj872JOO9CAws\"><i class=\"fas fa-suitcase\"></i> Blazing Talon Surge</a></p>\n<p><strong>Requirements </strong>You are in <a class=\"entity-link\" draggable=\"true\" data-pack=\"pf2e.feats-srd\" data-id=\"rbiMK71SvGZGRLJ1\"><i class=\"fas fa-suitcase\"></i> Rain of Embers Stance</a> and have a target <a class=\"entity-link\" draggable=\"true\" data-pack=\"pf2e.conditionitems\" data-id=\"kWc1fhmv9LBiTuei\"><i class=\"fas fa-suitcase\"></i> Grabbed</a> or <a class=\"entity-link\" draggable=\"true\" data-pack=\"pf2e.conditionitems\" data-id=\"VcDeM8A5oI6VqhbM\"><i class=\"fas fa-suitcase\"></i> Restrained</a>.</p>\n<hr>\n<p>You lift your enemy into the air before bringing them crashing down with a fiery detonation. Roll an Athletics check against your target's Fortitude DC. You take a –1 circumstance penalty to your check if the target is one size larger than you and a –3 circumstance penalty if it's larger than that. You gain a +1 circumstance bonus to your check if the target is one size smaller than you and a +3 circumstance bonus if it's smaller than that.</p>\n<hr>\n<p><strong>Critical Success</strong> The target takes <a class=\"inline-roll roll\" title=\"fire\" data-mode=\"roll\" data-flavor=\"fire\" data-formula=\"12d6\"><i class=\"fas fa-dice-d20\"></i> 12d6</a> fire damage and falls <a class=\"entity-link\" draggable=\"true\" data-pack=\"pf2e.conditionitems\" data-id=\"j91X7x0XSomq8d60\"><i class=\"fas fa-suitcase\"></i> Prone</a> in an unoccupied adjacent square of your choice. The target is no longer grabbed. The target and any creature adjacent to it also each take <a class=\"inline-roll roll\" title=\"persistent fire\" data-mode=\"roll\" data-flavor=\"persistent fire\" data-formula=\"1d6\"><i class=\"fas fa-dice-d20\"></i> 1d6</a> persistent fire damage.</p>\n<p><strong>Success </strong>As critical success, but the target takes <a class=\"inline-roll roll\" title=\"fire\" data-mode=\"roll\" data-flavor=\"fire\" data-formula=\"6d6\"><i class=\"fas fa-dice-d20\"></i> 6d6</a> fire damage instead of 12d6, and creatures don't take persistent fire damage.</p>\n<p><strong>Failure </strong>The target is no longer grabbed.</p>\n<p><strong>Critical Failure</strong> As failure, but you fall prone.</p>"
        },
        "featType": {
            "value": "class"
        },
        "level": {
            "value": "14"
        },
        "prerequisites": {
            "value": "Blazing Talon Surge"
        },
        "rarity": {
            "value": "common"
        },
        "rules": [],
        "source": {
            "value": ""
        },
        "traits": {
            "custom": "",
            "rarity": {
                "value": "common"
            },
            "value": [
                "fire",
                "monk"
            ]
        },
        "usage": {
            "value": "held-in-one-hand"
        }
    },
    "effects": [],
    "flags": {
        "core": {
            "sourceId": "Item.BGDTm2XMpKcXmFqj"
        }
    },
    "img": "systems/pf2e/icons/features/feats/feats.jpg",
    "name": "Explosive Death Drop",
    "permission": {
        "default": 0
    },
    "type": "feat"
}
