{
    "_id": "X5gNhaYNx1xu6NoH",
    "data": {
        "actionCategory": {
            "value": ""
        },
        "actionType": {
            "value": "passive"
        },
        "actions": {
            "value": ""
        },
        "description": {
            "chat": "",
            "unidentified": "",
            "value": "<p><strong>Prerequisites </strong><a class=\"entity-link\" data-pack=\"pf2e.feats-srd\" data-id=\"eAlrvPVb8qt8Lruw\" draggable=\"true\"><i class=\"fas fa-suitcase\"></i> Swashbuckler Dedication</a></p>\n<hr>\n<p>You've learned how to land daring blows when you have <a class=\"entity-link\" data-pack=\"pf2e.classfeatures\" data-id=\"LzYi0OuOoypNb6jd\" draggable=\"true\"><i class=\"fas fa-suitcase\"></i> Panache</a>.</p>\n<p>You gain the <a class=\"entity-link\" data-pack=\"pf2e.classfeatures\" data-id=\"RQH6vigvhmiYKKjg\" draggable=\"true\"><i class=\"fas fa-suitcase\"></i> Precise Strike</a> class feature but you deal 1 addition damage on a hit and 1d6 damage on a finisher. This damage doesn't increase as you gain levels. In addition, you gain the <a class=\"entity-link\" data-pack=\"pf2e.actionspf2e\" data-id=\"dCuvfq3r2K9wXY9g\" draggable=\"true\"><i class=\"fas fa-suitcase\"></i> Basic Finisher</a> action.</p>"
        },
        "featType": {
            "value": "archetype"
        },
        "level": {
            "value": "4"
        },
        "prerequisites": {
            "value": "Swashbuckler Dedication"
        },
        "rarity": {
            "value": "common"
        },
        "source": {
            "value": ""
        },
        "traits": {
            "rarity": {
                "value": "common"
            },
            "value": [
                "archetype"
            ]
        },
        "usage": {
            "value": ""
        }
    },
    "flags": {},
    "img": "systems/pf2e/icons/features/feats/feats.jpg",
    "name": "Finishing Precision",
    "permission": {
        "default": 0
    },
    "type": "feat"
}
