{
    "_id": "o8ogNJ53l1JDIJud",
    "data": {
        "actionCategory": {
            "value": ""
        },
        "actionType": {
            "value": "passive"
        },
        "actions": {
            "value": ""
        },
        "description": {
            "chat": "",
            "unidentified": "",
            "value": "<p><span id=\"ctl00_MainContent_DetailedOutput\"><strong>Prerequisites</strong> Scrollmaster Dedication <br></span></p>\n<hr>\n<p>Experience or focused study have granted you mastery of a number of topics. When you know about something, you know about it in great detail. When you succeed at a check to @Compendium[pf2e.actionspf2e.KygTSeDvsFoSO6HW]{Recall Knowledge}, you gain additional information or context. When you critically succeed at a check to Recall Knowledge, at the GM's discretion, you might gain even more additional information or context than normal.&nbsp;</p>"
        },
        "featType": {
            "value": "class"
        },
        "level": {
            "value": "10"
        },
        "prerequisites": {
            "value": "Scrollmaster Dedication "
        },
        "rarity": {
            "value": "common"
        },
        "source": {
            "value": ""
        },
        "traits": {
            "custom": "",
            "rarity": {
                "value": "common"
            },
            "value": [
                "archetype"
            ]
        },
        "usage": {
            "value": "held-in-one-hand"
        }
    },
    "flags": {},
    "img": "systems/pf2e/icons/features/feats/feats.jpg",
    "name": "Font of Knowledge",
    "permission": {
        "default": 0
    },
    "type": "feat"
}
