{
    "_id": "pZMBq7gn66SEEA0n",
    "data": {
        "actionCategory": {
            "value": ""
        },
        "actionType": {
            "value": "passive"
        },
        "actions": {
            "value": ""
        },
        "description": {
            "chat": "",
            "unidentified": "",
            "value": "<p><strong>Prerequisites </strong>trained in Survival</p>\n<hr>\n<p>You've mastered travel within a specific type of terrain. You gain the <a class=\"entity-link\" data-pack=\"pf2e.feats-srd\" data-id=\"sgo7J9BVofBqwlsF\" draggable=\"true\"><i class=\"fas fa-suitcase\"></i> Favored Terrain</a> feat.</p>\n<p>When in your favored terrain, you gain a +10-foot circumstance bonus to your travel Speed. When other creatures <a class=\"entity-link\" data-pack=\"pf2e.actionspf2e\" data-id=\"tfa4Sh7wcxCEqL29\" draggable=\"true\"><i class=\"fas fa-suitcase\"></i> Follow the Expert</a> with you as a guide in your favored terrain, they gain both the ability to ignore non-magical difficult terrain for the purpose of their travel Speed and the bonus to travel Speed.</p>\n<p><strong>Special</strong> You can't select another dedication feat until you have gained two other feats from the horizon walker archetype.</p>"
        },
        "featType": {
            "value": "archetype"
        },
        "level": {
            "value": "2"
        },
        "prerequisites": {
            "value": "trained in Survival"
        },
        "rarity": {
            "value": "common"
        },
        "source": {
            "value": ""
        },
        "traits": {
            "rarity": {
                "value": "common"
            },
            "value": [
                "archetype",
                "dedication"
            ]
        },
        "usage": {
            "value": ""
        }
    },
    "flags": {},
    "img": "systems/pf2e/icons/features/feats/feats.jpg",
    "name": "Horizon Walker Dedication",
    "permission": {
        "default": 0
    },
    "type": "feat"
}
