{
    "_id": "kIXFNPFBStOKunq4",
    "data": {
        "actionCategory": {
            "value": ""
        },
        "actionType": {
            "value": "reaction"
        },
        "actions": {
            "value": null
        },
        "description": {
            "chat": "",
            "unidentified": "",
            "value": "<p><strong>Trigger </strong>You gain no information from a Recall Knowledge check (usually because you failed the secret check) using one of the two skills you chose for this feat.</p>\n<hr>\n<p>Kreighton teaches his students that an agile mind can glean clues leading to the truth, even from the most unlikely of sources. You immediately reattempt the triggering check using the other chosen skill.</p>\n<hr>\n<p><strong>Special </strong>When you gain this feat, choose two of the following skills: Arcana, Crafting, Lore (any one), Medicine, Nature, Occultism, Religion, or Society.</p>"
        },
        "featType": {
            "value": "general"
        },
        "level": {
            "value": "4"
        },
        "prerequisites": {
            "value": null
        },
        "rarity": {
            "value": "common"
        },
        "rules": [],
        "source": {
            "value": ""
        },
        "traits": {
            "custom": "",
            "rarity": {
                "value": "uncommon"
            },
            "value": [
                "general",
                "skill"
            ]
        },
        "usage": {
            "value": "held-in-one-hand"
        }
    },
    "effects": [],
    "flags": {
        "core": {
            "sourceId": "Item.xuLnKMyaqOPe1t3J"
        }
    },
    "img": "systems/pf2e/icons/features/feats/feats.jpg",
    "name": "Kreighton's Cognitive Crossover",
    "permission": {
        "default": 0
    },
    "type": "feat"
}
