{
    "_id": "SjJ8BOy5sc8p2H5E",
    "data": {
        "actionCategory": {
            "value": ""
        },
        "actionType": {
            "value": "action"
        },
        "actions": {
            "value": "1"
        },
        "description": {
            "chat": "",
            "unidentified": "",
            "value": "<p><span id=\"ctl00_MainContent_DetailedOutput\"><strong>Archetype</strong> @Compendium[pf2e.archetypes.VRUYc3QyRjjOjppc]{Turpin Rowe Lumberjack}<u></u><br><strong>Prerequisites</strong> Turpin Rowe Lumberjack Dedication<br><strong>Requirements</strong> You and an adjacent creature are both on a narrow surface or uneven ground and the other creature is flat-footed.<br></span></p>\n<hr>\n<p>You shuffle your feet to dislodge the surface beneath you or otherwise cause your opponent to become unsteady. Attempt an Acrobatics check&nbsp;against the adjacent creature's Reflex saving throw DC. On a success, the creature falls. On a critical failure, you fall.&nbsp;</p>"
        },
        "featType": {
            "value": "archetype"
        },
        "level": {
            "value": "4"
        },
        "prerequisites": {
            "value": "Turpin Rowe Lumberjack Dedication"
        },
        "rarity": {
            "value": "common"
        },
        "source": {
            "value": ""
        },
        "traits": {
            "custom": "",
            "rarity": {
                "value": "common"
            },
            "value": [
                "archetype"
            ]
        },
        "usage": {
            "value": "held-in-one-hand"
        }
    },
    "flags": {},
    "img": "systems/pf2e/icons/features/feats/feats.jpg",
    "name": "Log Roll",
    "permission": {
        "default": 0
    },
    "type": "feat"
}
