{
    "_id": "mqLPCNdCSNyY7gyI",
    "data": {
        "actionCategory": {
            "value": ""
        },
        "actionType": {
            "value": "reaction"
        },
        "actions": {
            "value": ""
        },
        "description": {
            "chat": "",
            "unidentified": "",
            "value": "<p><strong>Prerequisites</strong> @Compendium[pf2e.classfeatures.SCYSjUbMmw8JD9P9]{Superstition Instinct}</p>\n<p><strong>Trigger</strong> A creature within your reach @Compendium[pf2e.actionspf2e.aBQ8ajvEBByv45yz]{Cast a Spell}.</p>\n<hr>\n<p>You use your hatred of magic to lash out at the sight of spellcasting, allowing you to interrupt an enemy's spell. Make a melee @Compendium[pf2e.actionspf2e.VjxZFuUXrCU94MWR]{Strike} against the triggering creature. If the attack is a critical hit, you disrupt the spell.</p>"
        },
        "featType": {
            "value": "class"
        },
        "level": {
            "value": "6"
        },
        "prerequisites": {
            "value": "superstition instinct"
        },
        "rarity": {
            "value": "common"
        },
        "source": {
            "value": ""
        },
        "traits": {
            "rarity": {
                "value": "common"
            },
            "value": [
                "barbarian",
                "rage"
            ]
        },
        "usage": {
            "value": ""
        }
    },
    "flags": {},
    "img": "systems/pf2e/icons/features/feats/feats.jpg",
    "name": "Mage Hunter",
    "permission": {
        "default": 0
    },
    "type": "feat"
}
