{
    "_id": "v7Bt6hjmzYnLFLeG",
    "data": {
        "actionCategory": {
            "value": ""
        },
        "actionType": {
            "label": "Action Type",
            "type": "String",
            "value": "passive"
        },
        "actions": {
            "label": "Number of Actions",
            "type": "String",
            "value": ""
        },
        "description": {
            "chat": "",
            "label": "Description",
            "type": "String",
            "unidentified": "",
            "value": "<p><strong>Prerequisites</strong> expert in Arcana, Nature, Occultism, or Religion</p>\n<hr>\n<p>Learning spells comes easily to you. If you're an expert in a tradition's associated skill, you take 10 minutes per spell level to learn a spell of that tradition, rather than 1 hour per spell level. If you fail to learn the spell, you can try again after 1 week or after you gain a level, whichever comes first. If you're a master in the tradition's associated skill, learning a spell takes 5 minutes per spell level, and if you're legendary, it takes 1 minute per spell level. You can use downtime to learn and inscribe new spells. This works as if you were using Earn Income with the tradition's associated skill, but instead of gaining money, you choose a spell available to you to learn and gain a discount on learning it, learning it for free if your earned income equals or exceeds its cost.</p>"
        },
        "featType": {
            "label": "Feat Type",
            "type": "String",
            "value": "skill"
        },
        "level": {
            "label": "Feat Level",
            "type": "String",
            "value": "2"
        },
        "prerequisites": {
            "label": "Prerequisites",
            "type": "String",
            "value": "expert in Arcana, Nature, Occultism, or Religion"
        },
        "rarity": {
            "value": "common"
        },
        "source": {
            "label": "Source",
            "type": "String",
            "value": ""
        },
        "traits": {
            "custom": "",
            "label": "Traits",
            "rarity": {
                "value": "common"
            },
            "type": "String",
            "value": [
                "general",
                "skill"
            ]
        },
        "usage": {
            "value": "held-in-one-hand"
        }
    },
    "flags": {},
    "img": "systems/pf2e/icons/features/feats/feats.jpg",
    "name": "Magical Shorthand",
    "permission": {
        "default": 0
    },
    "type": "feat"
}
