{
    "_id": "itjTPh76mZfJCBxQ",
    "data": {
        "actionCategory": {
            "value": ""
        },
        "actionType": {
            "value": "passive"
        },
        "actions": {
            "value": ""
        },
        "description": {
            "chat": "",
            "unidentified": "",
            "value": "<p><span id=\"ctl00_MainContent_DetailedOutput\"><strong>Prerequisites</strong> You have a swim Speed.<br></span></p>\n<hr>\n<p>You are adept at moving through marshy terrain. When you use the Step action, you can ignore difficult terrain caused by flooding, swamps, or quicksand. In addition, when you use the Acrobatics skill to Balance on narrow surfaces or uneven marshy ground, you aren't flat-footed, and if you roll a success on the Acrobatics check, you get a critical success instead.&nbsp;</p>"
        },
        "featType": {
            "value": "ancestry"
        },
        "level": {
            "value": "1"
        },
        "prerequisites": {
            "value": "You have a swim Speed"
        },
        "rarity": {
            "value": "common"
        },
        "source": {
            "value": ""
        },
        "traits": {
            "custom": "",
            "rarity": {
                "value": "common"
            },
            "value": [
                "lizardfolk"
            ]
        },
        "usage": {
            "value": "held-in-one-hand"
        }
    },
    "flags": {},
    "img": "systems/pf2e/icons/features/feats/feats.jpg",
    "name": "Marsh Runner",
    "permission": {
        "default": 0
    },
    "type": "feat"
}
