{
    "_id": "DFY3X7Mgl9rESQuu",
    "data": {
        "actionCategory": {
            "value": ""
        },
        "actionType": {
            "value": "passive"
        },
        "actions": {
            "value": ""
        },
        "description": {
            "chat": "",
            "unidentified": "",
            "value": "<p><strong>Prerequisites </strong>@Compendium[pf2e.feats-srd.eR0sifECG27CC4do]{Shape Of The Dragon}</p>\n<hr>\n<p>You've practiced and increased your draconic might,&nbsp;allowing you to take your draconic form more often. You&nbsp;can use Shape of the Dragon once per hour instead of once&nbsp;per day.</p>"
        },
        "featType": {
            "value": "archetype"
        },
        "level": {
            "value": "18"
        },
        "prerequisites": {
            "value": "Shape of the Dragon"
        },
        "rarity": {
            "value": "common"
        },
        "source": {
            "value": ""
        },
        "traits": {
            "rarity": {
                "value": "common"
            },
            "value": [
                "archetype"
            ]
        },
        "usage": {
            "value": ""
        }
    },
    "flags": {},
    "img": "systems/pf2e/icons/features/feats/feats.jpg",
    "name": "Mighty Dragon Shape",
    "permission": {
        "default": 0
    },
    "type": "feat"
}
