{
    "_id": "AyP23H3WJkEAIEKd",
    "data": {
        "actionCategory": {
            "value": ""
        },
        "actionType": {
            "value": "action"
        },
        "actions": {
            "value": "1"
        },
        "description": {
            "chat": "",
            "unidentified": "",
            "value": "<p><strong>Prerequisites </strong>Spellmaster Dedication</p>\n<p><strong>Requirements </strong>You're wielding a melee weapon and have Cast a Spell requiring at least 1 action this turn.</p>\n<hr>\n<p>You dart around the battlefield, casting spells while you carefully make melee attacks with your weapon. Stride once. If you end your movement within melee reach of at least one enemy, you can make a melee Strike against that enemy. You can use Mobile Magical Combat while Burrowing, Climbing, Flying, or Swimming instead of Striding if you have the corresponding movement type.</p>"
        },
        "featType": {
            "value": "archetype"
        },
        "level": {
            "value": "16"
        },
        "prerequisites": {
            "value": "Spellmaster Dedication"
        },
        "rarity": {
            "value": "common"
        },
        "rules": [],
        "source": {
            "value": ""
        },
        "traits": {
            "custom": "",
            "rarity": {
                "value": "common"
            },
            "value": [
                "archetype",
                "flourish"
            ]
        },
        "usage": {
            "value": "held-in-one-hand"
        }
    },
    "effects": [],
    "flags": {
        "core": {
            "sourceId": "Item.luDW5pEjjaMCX1R3"
        }
    },
    "img": "systems/pf2e/icons/features/feats/feats.jpg",
    "name": "Mobile Magical Combat",
    "permission": {
        "default": 0
    },
    "type": "feat"
}
