{
    "_id": "ZTxiM8NExDmxHJDf",
    "data": {
        "actionCategory": {
            "value": ""
        },
        "actionType": {
            "value": "action"
        },
        "actions": {
            "value": "2"
        },
        "description": {
            "chat": "",
            "unidentified": "",
            "value": "<p><span id=\"ctl00_MainContent_DetailedOutput\"><strong>Prerequisites</strong> <a class=\"entity-link\" draggable=\"true\" data-pack=\"pf2e.feats-srd\" data-id=\"VJ3wIsfmabK02SNg\"><i class=\"fas fa-suitcase\"></i> Provocator Dedication</a><br></span></p>\n<hr>\n<p>You Strike a target within reach. If you hit and deal damage, the target is also <a class=\"entity-link\" draggable=\"true\" data-pack=\"pf2e.conditionitems\" data-id=\"VcDeM8A5oI6VqhbM\"><i class=\"fas fa-suitcase\"></i> Restrained</a> as if you had critically succeeded at an Athletics check to <a class=\"entity-link\" draggable=\"true\" data-pack=\"pf2e.actionspf2e\" data-id=\"PMbdMWc2QroouFGD\"><i class=\"fas fa-suitcase\"></i> Grapple</a>.</p>"
        },
        "featType": {
            "value": "archetype"
        },
        "level": {
            "value": "14"
        },
        "prerequisites": {
            "value": "Provocator Dedication"
        },
        "rarity": {
            "value": "common"
        },
        "rules": [],
        "source": {
            "value": ""
        },
        "traits": {
            "custom": "",
            "rarity": {
                "value": "common"
            },
            "value": [
                "archetype"
            ]
        },
        "usage": {
            "value": "held-in-one-hand"
        }
    },
    "effects": [],
    "flags": {
        "core": {
            "sourceId": "Item.TYPmZA16GCm8rVE2"
        }
    },
    "img": "systems/pf2e/icons/features/feats/feats.jpg",
    "name": "Pin to the Spot",
    "permission": {
        "default": 0
    },
    "type": "feat"
}
