{
    "_id": "G9l2g7sDpPVbZJza",
    "data": {
        "actionCategory": {
            "value": ""
        },
        "actionType": {
            "value": "action"
        },
        "actions": {
            "value": "1"
        },
        "description": {
            "chat": "",
            "unidentified": "",
            "value": "<p><strong>Prerequisites</strong> @Compendium[pf2e.feats-srd.5Q69PI8jdQVkb1ZT]{Cavalier Dedication}, expert in Nature</p>\n<p><strong>Requirements</strong> You are adjacent to a creature that is at least <br>one size larger than you and is willing to be your mount.</p>\n<hr>\n<p>You and your mount can spring into action at a moment's notice. You @Compendium[pf2e.actionspf2e.PM5jvValFkbFH3TV]{Mount} the creature and @Compendium[pf2e.actionspf2e.q9nbyIF0PEBqMtYe]{Command an Animal} to issue it an order of your choice.</p>"
        },
        "featType": {
            "value": "archetype"
        },
        "level": {
            "value": "4"
        },
        "prerequisites": {
            "value": "Cavalier Dedication, expert in Nature"
        },
        "rarity": {
            "value": "common"
        },
        "rules": [],
        "source": {
            "value": ""
        },
        "traits": {
            "rarity": {
                "value": "common"
            },
            "value": [
                "archetype",
                "skill"
            ]
        },
        "usage": {
            "value": ""
        }
    },
    "flags": {},
    "img": "systems/pf2e/icons/features/feats/feats.jpg",
    "name": "Quick Mount",
    "permission": {
        "default": 0
    },
    "type": "feat"
}
