{
    "_id": "xmccXo6U7P0IMM3z",
    "data": {
        "actionCategory": {
            "value": ""
        },
        "actionType": {
            "value": "passive"
        },
        "actions": {
            "value": ""
        },
        "description": {
            "chat": "",
            "unidentified": "",
            "value": "<p><span id=\"ctl00_MainContent_DetailedOutput\"><strong>Prerequisites</strong> Knight Reclaimant Dedication, master proficiency in a weapon<br></span></p>\n<hr>\n<p>Your skill and fervor allow you to pierce undead defenses and exploit their weaknesses. When you make an attack using a weapon with which you have master proficiency and hit an undead creature, you ignore 5 points of the creature's resistances, and the undead's weaknesses are 2 higher against your attack.&nbsp;</p>"
        },
        "featType": {
            "value": "archetype"
        },
        "level": {
            "value": "12"
        },
        "prerequisites": {
            "value": "Knight Reclaimant Dedication, master proficiency in a weapon"
        },
        "rarity": {
            "value": "common"
        },
        "rules": [],
        "source": {
            "value": ""
        },
        "traits": {
            "custom": "",
            "rarity": {
                "value": "common"
            },
            "value": [
                "archetype"
            ]
        },
        "usage": {
            "value": "held-in-one-hand"
        }
    },
    "flags": {},
    "img": "systems/pf2e/icons/features/feats/feats.jpg",
    "name": "Reaper of Repose",
    "permission": {
        "default": 0
    },
    "type": "feat"
}
