{
    "_id": "QgNo1s6nVbKPU4St",
    "data": {
        "actionCategory": {
            "value": ""
        },
        "actionType": {
            "value": "passive"
        },
        "actions": {
            "value": ""
        },
        "description": {
            "chat": "",
            "unidentified": "",
            "value": "<p><strong>Prerequisites </strong>@Compendium[pf2e.feats-srd.7qBuzHY8kEG8SdEP]{Cat's Luck}</p>\n<hr>\n<p>You have gone well past nine lives to survive danger with surprising regularity. You can use Cat's Luck once per hour, rather than once per day.</p>"
        },
        "featType": {
            "value": "ancestry"
        },
        "level": {
            "value": "17"
        },
        "prerequisites": {
            "value": "Cat's Luck"
        },
        "rarity": {
            "value": "common"
        },
        "rules": [],
        "source": {
            "value": ""
        },
        "traits": {
            "rarity": {
                "value": "common"
            },
            "value": [
                "catfolk"
            ]
        },
        "usage": {
            "value": ""
        }
    },
    "flags": {},
    "img": "systems/pf2e/icons/features/feats/feats.jpg",
    "name": "Reliable Luck",
    "permission": {
        "default": 0
    },
    "type": "feat"
}
