{
    "_id": "3ZerjLH8ls3JT6cD",
    "data": {
        "actionCategory": {
            "value": ""
        },
        "actionType": {
            "value": "passive"
        },
        "actions": {
            "value": ""
        },
        "description": {
            "chat": "",
            "unidentified": "",
            "value": "<p><span id=\"ctl00_MainContent_DetailedOutput\"><strong>Prerequisites</strong> expert in Medicine<br></span></p>\n<hr>\n<p>You learned folk medicine to help recover from diseases and poison, and using it diligently has made you especially resilient. When you Treat a Disease or a Poison, or someone else uses one of these actions on you, increase the circumstance bonus granted on a success to +4, and if the result of the patient's saving throw is a success, the patient gets a critical success.</p>"
        },
        "featType": {
            "value": "skill"
        },
        "level": {
            "value": "2"
        },
        "prerequisites": {
            "value": "expert in Medicine"
        },
        "rarity": {
            "value": "common"
        },
        "rules": [],
        "source": {
            "value": ""
        },
        "traits": {
            "custom": "",
            "rarity": {
                "value": "common"
            },
            "value": [
                "general",
                "skill"
            ]
        },
        "usage": {
            "value": "held-in-one-hand"
        }
    },
    "flags": {},
    "img": "systems/pf2e/icons/features/feats/feats.jpg",
    "name": "Robust Recovery",
    "permission": {
        "default": 0
    },
    "type": "feat"
}
