{
    "_id": "4MUbwilvb9dI0X59",
    "data": {
        "actionCategory": {
            "value": ""
        },
        "actionType": {
            "value": "passive"
        },
        "actions": {
            "value": ""
        },
        "description": {
            "chat": "",
            "unidentified": "",
            "value": "<p><strong>Prerequisites </strong>trained in Crafting, <a class=\"entity-link\" data-pack=\"pf2e.feats-srd\" data-id=\"DMetdzt1VJL2Y62i\" draggable=\"true\"><i class=\"fas fa-suitcase\"></i> Snare Crafting</a></p>\n<hr>\n<p>You've learned to create a limited number of snares at no cost. Each day during your daily preparations, you can prepare four snares from your formula book for quick deployment; if they normally take 1 minute to <a class=\"entity-link\" data-pack=\"pf2e.actionspf2e\" data-id=\"rmwa3OyhTZ2i2AHl\" draggable=\"true\"><i class=\"fas fa-suitcase\"></i> Craft</a>, you can Craft them with 3 <a class=\"entity-link\" data-pack=\"pf2e.actionspf2e\" data-id=\"pvQ5rY2zrtPI614F\" draggable=\"true\"><i class=\"fas fa-suitcase\"></i> Interact</a> actions. The number of snares increases to six if you're a master in Crafting and eight if you're legendary.</p>\n<p>Snares prepared in this way don't cost you any resources to Craft.</p>\n<p><strong>Special</strong> The feat counts as <a class=\"entity-link\" data-pack=\"pf2e.feats-srd\" data-id=\"0haS0qXR9xTYKoTG\" draggable=\"true\"><i class=\"fas fa-suitcase\"></i> Snare Specialist</a> for the purpose of feat prerequisites. If you also have the Snare Specialist ranger feat, the <a class=\"entity-link\" data-pack=\"pf2e.feats-srd\" data-id=\"KW6K5Zv4J7ClWkKA\" draggable=\"true\"><i class=\"fas fa-suitcase\"></i> Quick Snares</a> from both feats are cumulative. You can't select another dedication feat until you have gained two other feats from the snarecrafter archetype.</p>"
        },
        "featType": {
            "value": "archetype"
        },
        "level": {
            "value": "2"
        },
        "prerequisites": {
            "value": "trained in Crafting, Snare Crafting"
        },
        "rarity": {
            "value": "common"
        },
        "rules": [],
        "source": {
            "value": ""
        },
        "traits": {
            "rarity": {
                "value": "common"
            },
            "value": [
                "archetype",
                "dedication"
            ]
        },
        "usage": {
            "value": ""
        }
    },
    "flags": {},
    "img": "systems/pf2e/icons/features/feats/feats.jpg",
    "name": "Snarecrafter Dedication",
    "permission": {
        "default": 0
    },
    "type": "feat"
}
