{
    "_id": "t6sey3cyV8n7a78l",
    "data": {
        "actionCategory": {
            "value": ""
        },
        "actionType": {
            "value": "action"
        },
        "actions": {
            "value": "3"
        },
        "description": {
            "chat": "",
            "unidentified": "",
            "value": "<p><strong>Prerequisites </strong>@Compendium[pf2e.feats-srd.5Q69PI8jdQVkb1ZT]{Cavalier Dedication}</p>\n<p><strong>Requirements</strong> You are riding a mount that has a melee @Compendium[pf2e.actionspf2e.VjxZFuUXrCU94MWR]{Strike} using its legs (claw, talons, hoof, etc.).</p>\n<hr>\n<p>You urge your mount forward, trampling enemies in your path. You command your mount to @Compendium[pf2e.actionspf2e.Bcxarzksqt9ezrs6]{Stride} up to its Speed (or to @Compendium[pf2e.actionspf2e.H6v1VgowHaKHnVlG]{Burrow}, @Compendium[pf2e.actionspf2e.pprgrYQ1QnIDGZiy]{Climb}, @Compendium[pf2e.actionspf2e.cS9nfDRGD83bNU1p]{Fly}, or @Compendium[pf2e.actionspf2e.c8TGiZ48ygoSPofx]{Swim}, if it has the corresponding movement type), moving through the spaces of any foes in your path up to one size smaller than your mount.</p>\n<p>Your mount deals damage equal to the melee Strike using its legs to each creature whose space you move through, subject to a basic Reflex save against your mount's Athletics DC. On a critical failure, the creature also becomes @Compendium[pf2e.conditionspf2e.AJh5ex99aV6VTggg]{Flat-Footed} until the end of your next turn. You can damage a given creature only once during this movement.</p>"
        },
        "featType": {
            "value": "archetype"
        },
        "level": {
            "value": "10"
        },
        "prerequisites": {
            "value": "Cavalier Dedication"
        },
        "rarity": {
            "value": "common"
        },
        "rules": [],
        "source": {
            "value": ""
        },
        "traits": {
            "rarity": {
                "value": "common"
            },
            "value": [
                "archetype",
                "flourish"
            ]
        },
        "usage": {
            "value": ""
        }
    },
    "flags": {},
    "img": "systems/pf2e/icons/features/feats/feats.jpg",
    "name": "Trampling Charge",
    "permission": {
        "default": 0
    },
    "type": "feat"
}
