{
    "_id": "m9tKNsZQQjHdsmEN",
    "data": {
        "actionCategory": {
            "value": ""
        },
        "actionType": {
            "value": "passive"
        },
        "actions": {
            "value": ""
        },
        "description": {
            "chat": "",
            "unidentified": "",
            "value": "<p><span id=\"ctl00_MainContent_DetailedOutput\"><strong>Prerequisites</strong> You have a spellcasting class feature with the divine or primal tradition<br><strong>Access</strong> Erutaki ethnicity<br></span></p>\n<hr>\n<p>You know the truth behind old stories that tell of sending a fetish of bone and sinew to seek vengeance. These old magics allow you to conjure constructs with ease. Add the @Compendium[pf2e.spells-srd.lKcsmeOrgHtK4xQa]{Summon Construct} spell to your spell list. The constructs you summon have a distinct ivory scrimshaw appearance, and if you include a drop of blood, lock of hair, or other portion of a creature's body as part of the spell's material component, the summoned construct gains a +4 status bonus to Perception checks to sense or locate that creature.&nbsp;</p>"
        },
        "featType": {
            "value": "ancestry"
        },
        "level": {
            "value": "1"
        },
        "prerequisites": {
            "value": "You have a spellcasting class feature with the divine or primal tradition"
        },
        "rarity": {
            "value": "common"
        },
        "rules": [],
        "source": {
            "value": ""
        },
        "traits": {
            "custom": "",
            "rarity": {
                "value": "common"
            },
            "value": [
                "uncommon",
                "human"
            ]
        },
        "usage": {
            "value": "held-in-one-hand"
        }
    },
    "flags": {},
    "img": "systems/pf2e/icons/features/feats/feats.jpg",
    "name": "Tupilaq Carver",
    "permission": {
        "default": 0
    },
    "type": "feat"
}
