{
    "_id": "9CXQhg4YprPhqzoL",
    "data": {
        "actionCategory": {
            "value": ""
        },
        "actionType": {
            "value": "action"
        },
        "actions": {
            "value": "1"
        },
        "description": {
            "chat": "",
            "unidentified": "",
            "value": "<p>You tumble around your foes, expertly avoiding their reactions. @Compendium[pf2e.actionspf2e.Bcxarzksqt9ezrs6]{Stride} up to half your Speed and roll an Acrobatics check. Compare the result to the Reflex DC of each foe whose reach you began in or enter during the movement, in sequence.</p>\n<p><strong>Critical Success</strong>: This movement doesn't trigger reactions from <br>the foe, the foe is @Compendium[pf2e.conditionspf2e.AJh5ex99aV6VTggg]{Flat-Footed} to you until the end of your turn, <br>and you gain @Compendium[pf2e.classfeatures.LzYi0OuOoypNb6jd]{Panache}.</p>\n<p><strong>Success</strong>: This movement doesn't trigger reactions from the foe, <br>and you gain panache.</p>\n<p><strong>Critical Failure</strong>: Your movement immediately stops when you <br>enter the creature's reach; if you began in the creature's <br>reach, you don't move.</p>"
        },
        "featType": {
            "value": "class"
        },
        "level": {
            "value": "6"
        },
        "prerequisites": {
            "value": ""
        },
        "rarity": {
            "value": "common"
        },
        "rules": [],
        "source": {
            "value": ""
        },
        "traits": {
            "rarity": {
                "value": "common"
            },
            "value": [
                "swashbuckler"
            ]
        },
        "usage": {
            "value": ""
        }
    },
    "flags": {},
    "img": "systems/pf2e/icons/features/feats/feats.jpg",
    "name": "Vexing Tumble",
    "permission": {
        "default": 0
    },
    "type": "feat"
}
