{
    "_id": "mnhsG4l53YJkJIeY",
    "data": {
        "actionCategory": {
            "value": ""
        },
        "actionType": {
            "value": "passive"
        },
        "actions": {
            "value": ""
        },
        "description": {
            "chat": "",
            "unidentified": "",
            "value": "<p><span id=\"ctl00_MainContent_DetailedOutput\"><strong>Archetype</strong> @Compendium[pf2e.archetypes.VRUYc3QyRjjOjppc]{Turpin Rowe Lumberjack}<br></span></p>\n<hr>\n<p>Once you have penetrated a foe's defenses, you can home in on the same spot to exploit your opponent's wound and deal some serious damage. The second time you hit and deal damage with a melee axe Strike to the same opponent or object during your turn, you ignore half of the opponent's or object's Hardness, if any. If you hit and deal damage with a melee axe Strike to the same opponent or object a third or fourth time during your turn, you ignore all of its Hardness, if any.&nbsp;</p>"
        },
        "featType": {
            "value": "archetype"
        },
        "level": {
            "value": "10"
        },
        "prerequisites": {
            "value": ""
        },
        "rarity": {
            "value": "common"
        },
        "rules": [],
        "source": {
            "value": ""
        },
        "traits": {
            "custom": "",
            "rarity": {
                "value": "common"
            },
            "value": [
                "archetype"
            ]
        },
        "usage": {
            "value": "held-in-one-hand"
        }
    },
    "flags": {},
    "img": "systems/pf2e/icons/features/feats/feats.jpg",
    "name": "Widen the Gap",
    "permission": {
        "default": 0
    },
    "type": "feat"
}
