{
    "_id": "8ersuvNJXX00XaIQ",
    "data": {
        "description": {
            "chat": "",
            "unidentified": "",
            "value": "<p>Implemented: Applies a -1 penalty to all saving throws.</p>\n<p><a class=\"entity-link\" draggable=\"true\" data-pack=\"pf2e.gmg-srd\" data-id=\"jVh90bfsC6w6iVyy\"><i class=\"fas fa-book-open\"></i> Euryale (curse)</a> from the <a class=\"entity-link\" draggable=\"true\" data-pack=\"pf2e.equipment-srd\" data-id=\"Gyi4IVrAVJRPJF2s\"><i class=\"fas fa-suitcase\"></i> Deck of Many Things</a></p>"
        },
        "level": {
            "value": 0
        },
        "rarity": {
            "value": "common"
        },
        "rules": [
            {
                "key": "PF2E.RuleElement.FlatModifier",
                "label": "Euryale Curse",
                "selector": "saving-throw",
                "type": "untyped",
                "value": -1
            }
        ],
        "source": {
            "value": ""
        },
        "traits": {
            "value": []
        },
        "usage": {
            "value": "held-in-one-hand"
        }
    },
    "effects": [],
    "flags": {
        "core": {
            "sourceId": "Item.5EyhEO24vgV7ostd"
        }
    },
    "img": "icons/sundries/gaming/rune-card.webp",
    "name": "Effect: Euryale (Curse) Card",
    "permission": {
        "default": 0
    },
    "type": "effect"
}
