{
    "_id": "kiKxnKd7Dfegk9dM",
    "data": {
        "actionCategory": {
            "value": ""
        },
        "actionType": {
            "value": "passive"
        },
        "actions": {
            "value": null
        },
        "containerId": {
            "value": ""
        },
        "description": {
            "chat": "",
            "unidentified": "",
            "value": "<p>You live under the desert’s blazing heat, gaining incredible resilience to warm environments. You gain fire resistance equal to half your level (minimum 1), and environmental heat effects are one step less extreme for you (incredible heat becomes extreme, extreme heat becomes severe, and so on).&nbsp;</p>"
        },
        "featType": {
            "value": "ancestryfeature"
        },
        "level": {
            "value": "1"
        },
        "prerequisites": {
            "value": null
        },
        "rarity": {
            "value": "common"
        },
        "rules": [],
        "source": {
            "value": ""
        },
        "traits": {
            "custom": "",
            "rarity": {
                "value": "common"
            },
            "selected": [],
            "value": [
                "elf"
            ]
        },
        "usage": {
            "value": "held-in-one-hand"
        }
    },
    "effects": [],
    "flags": {},
    "img": "systems/pf2e/icons/features/ancestry/desert-elf.jpg",
    "name": "Desert Elf",
    "permission": {
        "default": 0
    },
    "type": "feat"
}
