{
    "_id": "ikNJZRxUjcRLisO6",
    "data": {
        "actionCategory": {
            "value": ""
        },
        "actionType": {
            "value": "passive"
        },
        "actions": {
            "value": null
        },
        "containerId": {
            "value": ""
        },
        "description": {
            "chat": "",
            "unidentified": "",
            "value": "<p>Hobgoblins were engineered long ago from the unreliable and fecund goblins, to be used as an army against the elves. Although the elves ultimately freed the hobgoblins from their bondage, some hobgoblins retain ancestral resistance to magic, which they refer to as “elf magic.” You gain the <a class=\"entity-link\" draggable=\"true\" data-pack=\"pf2e.actionspf2e\" data-id=\"On5CQjX4euWqToly\"> Resist Elf Magic</a> reaction.</p>"
        },
        "featType": {
            "value": "ancestryfeature"
        },
        "level": {
            "value": "1"
        },
        "prerequisites": {
            "value": null
        },
        "rarity": {
            "value": "common"
        },
        "rules": [],
        "source": {
            "value": ""
        },
        "traits": {
            "custom": "",
            "rarity": {
                "value": "common"
            },
            "selected": {
                "hobgoblin": "Hobgoblin"
            },
            "value": [
                "hobgoblin"
            ]
        },
        "usage": {
            "value": "held-in-one-hand"
        }
    },
    "effects": [],
    "flags": {},
    "img": "systems/pf2e/icons/features/ancestry/unbreakable-goblin.jpg",
    "name": "Elfbane Hobgoblin",
    "permission": {
        "default": 0
    },
    "type": "feat"
}
