{
    "_id": "1lv7RMp7t5iqeUFT",
    "data": {
        "actionCategory": {
            "value": ""
        },
        "actionType": {
            "value": "passive"
        },
        "actions": {
            "value": null
        },
        "description": {
            "chat": "",
            "unidentified": "",
            "value": "<p>You come from a long line of skilled hunters and trackers and have a particularly keen sense of smell. You gain imprecise scent with a range of 30 feet. This means you can use your sense of smell to determine a creature's location, as explained on page 456 of the Core Rulebook. The GM will usually double the range if you're downwind from the creature or halve the range if you're upwind.</p>\n<p>In addition, you gain a +2 circumstance bonus to <a class=\"entity-link\" draggable=\"true\" data-pack=\"pf2e.actionspf2e\" data-id=\"EA5vuSgJfiHH7plD\"> Track</a> a creature or object if you've smelled it before.</p>"
        },
        "featType": {
            "value": "ancestryfeature"
        },
        "level": {
            "value": "1"
        },
        "prerequisites": {
            "value": null
        },
        "rarity": {
            "value": "common"
        },
        "rules": [],
        "source": {
            "value": ""
        },
        "traits": {
            "custom": "",
            "rarity": {
                "value": "common"
            },
            "value": [
                "catfolk"
            ]
        },
        "usage": {
            "value": "held-in-one-hand"
        }
    },
    "effects": [],
    "flags": {},
    "img": "systems/pf2e/icons/features/ancestry/hunting-catfolk.jpg",
    "name": "Hunting Catfolk",
    "permission": {
        "default": 0
    },
    "type": "feat"
}
